<svg width="35" height="40" viewBox="0 0 35 40" fill="none" xmlns="http://www.w3.org/2000/svg">
    <path d="M11.4286 14.2857H14.2857V31.4286H11.4286V14.2857Z" fill="#F9F7F3"/>
    <path d="M20 14.2857H22.8571V31.4286H20V14.2857Z" fill="#F9F7F3"/>
    <path d="M0 5.71429V8.57143H2.85714V37.1429C2.85714 37.9006 3.15816 38.6273 3.69398 39.1632C4.2298 39.699 4.95652 40 5.71429 40H28.5714C29.3292 40 30.0559 39.699 30.5917 39.1632C31.1276 38.6273 31.4286 37.9006 31.4286 37.1429V8.57143H34.2857V5.71429H0ZM5.71429 37.1429V8.57143H28.5714V37.1429H5.71429Z" fill="#F9F7F3"/>
    <path d="M11.4286 0H22.8571V2.85714H11.4286V0Z" fill="#F9F7F3"/>
</svg>