<svg width="43" height="40" viewBox="0 0 43 40" fill="none" xmlns="http://www.w3.org/2000/svg">
    <path d="M4.21053 4.21053H31.5789V18.9474H35.7895V4.21053C35.7895 1.88842 33.9011 0 31.5789 0H4.21053C1.88842 0 0 1.88842 0 4.21053V29.4737C0 31.7958 1.88842 33.6842 4.21053 33.6842H21.0526V29.4737H4.21053V4.21053Z" fill="#F9F7F3"/>
    <path d="M12.6316 16.8421L6.31579 25.2632H29.4737L21.0526 12.6316L14.7368 21.0526L12.6316 16.8421Z" fill="#F9F7F3"/>
    <path d="M35.7895 23.1579H31.5789V29.4737H25.2632V33.6842H31.5789V40H35.7895V33.6842H42.1053V29.4737H35.7895V23.1579Z" fill="#F9F7F3"/>
</svg>
