<svg width="35" height="30" viewBox="0 0 35 30" fill="none" xmlns="http://www.w3.org/2000/svg">
    <path fill-rule="evenodd" clip-rule="evenodd" d="M17.7647 29.3706C17.5652 29.1716 17.4069 28.9352 17.2989 28.6749C17.1909 28.4146 17.1353 28.1356 17.1353 27.8538C17.1353 27.572 17.1909 27.293 17.2989 27.0327C17.4069 26.7724 17.5652 26.536 17.7647 26.337L29.1065 14.9994L17.7647 3.66191C17.5655 3.46272 17.4075 3.22624 17.2997 2.96599C17.1919 2.70573 17.1364 2.42679 17.1364 2.14509C17.1364 1.8634 17.1919 1.58446 17.2997 1.3242C17.4075 1.06394 17.5655 0.827473 17.7647 0.628283C17.9639 0.429092 18.2004 0.271084 18.4606 0.163282C18.7209 0.055481 18.9998 -1.90735e-06 19.2815 -1.90735e-06C19.5632 -1.90735e-06 19.8422 0.055481 20.1024 0.163282C20.3627 0.271084 20.5991 0.429092 20.7983 0.628283L33.6527 13.4826C33.8522 13.6816 34.0105 13.9181 34.1185 14.1783C34.2265 14.4386 34.2821 14.7176 34.2821 14.9994C34.2821 15.2812 34.2265 15.5603 34.1185 15.8205C34.0105 16.0808 33.8522 16.3172 33.6527 16.5162L20.7983 29.3706C20.5993 29.5701 20.3629 29.7284 20.1026 29.8364C19.8423 29.9444 19.5633 30 19.2815 30C18.9997 30 18.7207 29.9444 18.4604 29.8364C18.2001 29.7284 17.9637 29.5701 17.7647 29.3706Z" fill="#FFB300"/>
    <path fill-rule="evenodd" clip-rule="evenodd" d="M32.1359 14.9994C32.1359 15.5676 31.9101 16.1126 31.5084 16.5143C31.1066 16.9161 30.5617 17.1418 29.9935 17.1418L2.14239 17.1418C1.57419 17.1418 1.02927 16.9161 0.627491 16.5143C0.225716 16.1126 -3.8147e-06 15.5676 -3.8147e-06 14.9994C-3.8147e-06 14.4312 0.225716 13.8863 0.627491 13.4845C1.02927 13.0828 1.57419 12.857 2.14239 12.857L29.9935 12.857C30.5617 12.857 31.1066 13.0828 31.5084 13.4845C31.9101 13.8863 32.1359 14.4312 32.1359 14.9994Z" fill="#FFB300"/>
</svg>